…
Empresas: (nesse caso, `dados` representa a base completa da receita).

``` r
library(magrittr)

empresas <- dados %>% 
  dplyr::select(file, empresa) %>% 
  tidyr::unnest(empresa)
  
empresas
```

```
# A tibble: 9,048,917 x 4
   file         tipo  cnpj           nome_empresarial                    
   <chr>        <chr> <chr>          <chr>                               
 1 D71214AC.txt 01    07398403000180 BOI GORDO AGROPECUARIA COMERCIO E R…
 2 D71214AC.txt 01    03173169000131 CONSELHO ESCOLAR BOM JESUS          
 3 D71214AC.txt 01    07399184000153 D & A SOLUCOES INFORMATICA LTDA - ME
 4 D71214AC.txt 01    07399188000131 SOCIEDADE AGRICOLA POERINHA         
 5 D71214AC.txt 01    03300047000169 ASSOCIACAO MAO AMIGA DE PRODUTORES …
 6 D71214AC.txt 01    04940648000107 ASSOCIACAO DOS PRODUTORES RURAIS E …
 7 D71214AC.txt 01    04940653000101 CONSELHO ESCOLAR POLO HORTIGRANJEIRO
 8 D71214AC.txt 01    04940654000156 CONSELHO ESCOLAR CENTRO EDUCACIONAL…
 9 D71214AC.txt 01    03301098000105 ASSOCIACAO AGROEXTRATIVISTA SANTOS …
10 D71214AC.txt 01    01653480000152 DENEVS - TERCEIRIZACAO LTDA         
# ... with 9,048,907 more rows

```

Sócios:

``` r
socios <- dados %>% 
  dplyr::select(file, socio) %>% 
  tidyr::unnest(socio)
  
socios
```

```
# A tibble: 17,780,860 x 7
   file   tipo  cnpj  indicador_cpf_c… cpf_cnpj_socio qualificacao nome  
   <chr>  <chr> <chr> <chr>            <chr>          <chr>        <chr> 
 1 D7121… 02    0739… 2                NA             49           SELMA…
 2 D7121… 02    0739… 2                NA             22           MARCE…
 3 D7121… 02    0317… 2                NA             16           MARIA…
 4 D7121… 02    0739… 2                NA             49           DILSO…
 5 D7121… 02    0739… 2                NA             22           ANGEL…
 6 D7121… 02    0739… 2                NA             16           RAIMU…
 7 D7121… 02    0330… 2                NA             16           MOISE…
 8 D7121… 02    0494… 2                NA             16           RAIMU…
 9 D7121… 02    0494… 2                NA             16           MARIA…
10 D7121… 02    0494… 2                NA             16           EUCLI…
# ... with 17,780,850 more rows
…
